{
  "1": {
    "id": 1,
    "name": "ball_skill_jump",
    "level": [
      {
        "icon": "ball_skill_jump_01",
        "desc": "ball_skill_jump_desc_1",
        "type": "ball_skill_type_bounce",
        "inc": 1,
        "num": 60
      },
      {
        "icon": "ball_skill_jump_02",
        "desc": "ball_skill_jump_desc_2",
        "type": "ball_skill_type_bounce",
        "inc": 1,
        "num": 120
      },
      {
        "icon": "ball_skill_jump_03",
        "desc": "ball_skill_jump_desc_3",
        "type": "ball_skill_type_bounce",
        "inc": 1,
        "num": 180
      }
    ],
    "max_level": 3
  },
  "2": {
    "id": 2,
    "name": "ball_skill_stop",
    "level": [
      {
        "icon": "ball_skill_stop_01",
        "desc": "ball_skill_stop_desc_1",
        "type": "ball_skill_type_bounce",
        "inc": 0,
        "num": 25
      },
      {
        "icon": "ball_skill_stop_02",
        "desc": "ball_skill_stop_desc_2",
        "type": "ball_skill_type_bounce",
        "inc": 0,
        "num": 50
      },
      {
        "icon": "ball_skill_stop_03",
        "desc": "ball_skill_stop_desc_3",
        "type": "ball_skill_type_bounce",
        "inc": 0,
        "num": 75
      }
    ],
    "max_level": 3
  },
  "3": {
    "id": 3,
    "name": "ball_skill_wind_resistant",
    "level": [
      {
        "icon": "ball_skill_wind_resistant_01",
        "desc": "ball_skill_wind_resistant_desc_1",
        "type": "ball_skill_type_wind",
        "inc": 0,
        "num": 20
      },
      {
        "icon": "ball_skill_wind_resistant_02",
        "desc": "ball_skill_wind_resistant_desc_2",
        "type": "ball_skill_type_wind",
        "inc": 0,
        "num": 40
      },
      {
        "icon": "ball_skill_wind_resistant_03",
        "desc": "ball_skill_wind_resistant_desc_3",
        "type": "ball_skill_type_wind",
        "inc": 0,
        "num": 60
      }
    ],
    "max_level": 3
  },
  "4": {
    "id": 4,
    "name": "ball_skill_windward",
    "level": [
      {
        "icon": "ball_skill_windward_01",
        "desc": "ball_skill_windward_desc_1",
        "type": "ball_skill_type_wind",
        "inc": 1,
        "num": 20
      },
      {
        "icon": "ball_skill_windward_02",
        "desc": "ball_skill_windward_desc_2",
        "type": "ball_skill_type_wind",
        "inc": 1,
        "num": 40
      },
      {
        "icon": "ball_skill_windward_03",
        "desc": "ball_skill_windward_desc_3",
        "type": "ball_skill_type_wind",
        "inc": 1,
        "num": 60
      }
    ],
    "max_level": 3
  },
  "5": {
    "id": 5,
    "name": "ball_skill_bunker",
    "level": [
      {
        "icon": "ball_skill_bunker_01",
        "desc": "ball_skill_bunker_desc_1",
        "type": "ball_skill_type_debuff",
        "inc": 0,
        "num": 25
      },
      {
        "icon": "ball_skill_bunker_02",
        "desc": "ball_skill_bunker_desc_2",
        "type": "ball_skill_type_debuff",
        "inc": 0,
        "num": 50
      },
      {
        "icon": "ball_skill_bunker_03",
        "desc": "ball_skill_bunker_desc_3",
        "type": "ball_skill_type_debuff",
        "inc": 0,
        "num": 75
      }
    ],
    "max_level": 3
  },
  "6": {
    "id": 6,
    "name": "ball_skill_rough",
    "level": [
      {
        "icon": "ball_skill_rough_01",
        "desc": "ball_skill_rough_desc_1",
        "type": "ball_skill_type_debuff",
        "inc": 0,
        "num": 25
      },
      {
        "icon": "ball_skill_rough_02",
        "desc": "ball_skill_rough_desc_2",
        "type": "ball_skill_type_debuff",
        "inc": 0,
        "num": 50
      },
      {
        "icon": "ball_skill_rough_03",
        "desc": "ball_skill_rough_desc_3",
        "type": "ball_skill_type_debuff",
        "inc": 0,
        "num": 75
      }
    ],
    "max_level": 3
  },
  "7": {
    "id": 7,
    "name": "ball_skill_slope",
    "level": [
      {
        "icon": "ball_skill_slope_01",
        "desc": "ball_skill_slope_desc_1",
        "type": "ball_skill_type_debuff",
        "inc": 0,
        "num": 25
      },
      {
        "icon": "ball_skill_slope_02",
        "desc": "ball_skill_slope_desc_2",
        "type": "ball_skill_type_debuff",
        "inc": 0,
        "num": 50
      },
      {
        "icon": "ball_skill_slope_03",
        "desc": "ball_skill_slope_desc_3",
        "type": "ball_skill_type_debuff",
        "inc": 0,
        "num": 75
      }
    ],
    "max_level": 3
  },
  "8": {
    "id": 8,
    "name": "ball_skill_debuff",
    "level": [
      {
        "icon": "ball_skill_power_01",
        "desc": "ball_skill_power_desc_1",
        "type": "ball_skill_type_debuff",
        "inc": 0,
        "num": 25
      },
      {
        "icon": "ball_skill_power_02",
        "desc": "ball_skill_power_desc_2",
        "type": "ball_skill_type_debuff",
        "inc": 0,
        "num": 50
      },
      {
        "icon": "ball_skill_power_03",
        "desc": "ball_skill_power_desc_3",
        "type": "ball_skill_type_debuff",
        "inc": 0,
        "num": 100
      }
    ],
    "max_level": 3
  },
  "9": {
    "id": 9,
    "name": "ball_skill_power",
    "level": [
      {
        "icon": "ball_skill_power_01",
        "desc": "ball_skill_power_desc_1",
        "type": "ball_skill_type_power",
        "inc": 1,
        "num": 3
      },
      {
        "icon": "ball_skill_power_02",
        "desc": "ball_skill_power_desc_2",
        "type": "ball_skill_type_power",
        "inc": 1,
        "num": 5
      },
      {
        "icon": "ball_skill_power_03",
        "desc": "ball_skill_power_desc_3",
        "type": "ball_skill_type_power",
        "inc": 1,
        "num": 7
      }
    ],
    "max_level": 3
  }
}