{
  "1": {
    "id": 1,
    "name": "launcher_name_normal",
    "icon": "Icon_launcher_base",
    "skill": [],
    "free": 1,
    "is_festival": 0,
    "sort": 1,
    "num_per_pack": 9,
    "game_prefab": "pre_launcher_base",
    "expand_animation": "pre_launcher_1"
  },
  "2": {
    "id": 2,
    "name": "launcher_name_pre1",
    "icon": "Icon_launcher_base_low_white",
    "skill": [
      {
        "id": 2,
        "level": 1
      },
      {
        "id": 3,
        "level": 1
      }
    ],
    "free": 0,
    "is_festival": 0,
    "sort": 2,
    "num_per_pack": 9,
    "game_prefab": "pre_launcher_base_low_white",
    "expand_animation": "pre_launcher_1"
  },
  "3": {
    "id": 3,
    "name": "launcher_name_pre2",
    "icon": "Icon_launcher_base_middle_green",
    "skill": [
      {
        "id": 1,
        "level": 1
      },
      {
        "id": 2,
        "level": 2
      },
      {
        "id": 3,
        "level": 1
      }
    ],
    "free": 0,
    "is_festival": 0,
    "sort": 3,
    "num_per_pack": 9,
    "game_prefab": "pre_launcher_base_middle_green",
    "expand_animation": "pre_launcher_1"
  },
  "4": {
    "id": 4,
    "name": "launcher_name_pre3",
    "icon": "Icon_launcher_base_middle_pink",
    "skill": [
      {
        "id": 1,
        "level": 1
      },
      {
        "id": 2,
        "level": 1
      },
      {
        "id": 3,
        "level": 2
      }
    ],
    "free": 0,
    "is_festival": 0,
    "sort": 4,
    "num_per_pack": 9,
    "game_prefab": "pre_launcher_base_middle_pink",
    "expand_animation": "pre_launcher_1"
  },
  "5": {
    "id": 5,
    "name": "launcher_name_pre4",
    "icon": "Icon_launcher_base_middle_yellow",
    "skill": [
      {
        "id": 1,
        "level": 2
      },
      {
        "id": 2,
        "level": 2
      },
      {
        "id": 3,
        "level": 3
      }
    ],
    "free": 0,
    "is_festival": 0,
    "sort": 5,
    "num_per_pack": 9,
    "game_prefab": "pre_launcher_base_middle_yellow",
    "expand_animation": "pre_launcher_1"
  },
  "6": {
    "id": 6,
    "name": "launcher_name_pre5",
    "icon": "Icon_launcher_base_high_purple",
    "skill": [
      {
        "id": 1,
        "level": 3
      },
      {
        "id": 2,
        "level": 2
      },
      {
        "id": 3,
        "level": 2
      }
    ],
    "free": 0,
    "is_festival": 0,
    "sort": 6,
    "num_per_pack": 9,
    "game_prefab": "pre_launcher_base_high_purple",
    "expand_animation": "pre_launcher_1"
  },
  "7": {
    "id": 7,
    "name": "launcher_name_pre6",
    "icon": "Icon_launcher_base_high_black",
    "skill": [
      {
        "id": 1,
        "level": 3
      },
      {
        "id": 2,
        "level": 3
      },
      {
        "id": 3,
        "level": 3
      }
    ],
    "free": 0,
    "is_festival": 0,
    "sort": 7,
    "num_per_pack": 9,
    "game_prefab": "pre_launcher_base_high_black",
    "expand_animation": "pre_launcher_1"
  }
}