{
  "1": {
    "id": 1,
    "name": "skill_power",
    "level": [
      {
        "icon": "Cy_icon_fsq_sx_ll",
        "desc": "skill_distance_desc_1",
        "num": 3
      },
      {
        "icon": "Cy_icon_fsq_sx_ll",
        "desc": "skill_distance_desc_2",
        "num": 5
      },
      {
        "icon": "Cy_icon_fsq_sx_ll",
        "desc": "skill_distance_desc_3",
        "num": 8
      },
      {
        "icon": "Cy_icon_fsq_sx_ll",
        "desc": "skill_distance_desc_4",
        "num": 10
      },
      {
        "icon": "Cy_icon_fsq_sx_ll",
        "desc": "skill_distance_desc_5",
        "num": 15
      }
    ],
    "max_level": 5
  },
  "2": {
    "id": 2,
    "name": "skill_wind",
    "level": [
      {
        "icon": "Cy_icon_fsq_sx_jl",
        "desc": "skill_wind_desc_1",
        "num": -15
      },
      {
        "icon": "Cy_icon_fsq_sx_jl",
        "desc": "skill_wind_desc_2",
        "num": -25
      },
      {
        "icon": "Cy_icon_fsq_sx_jl",
        "desc": "skill_wind_desc_3",
        "num": -35
      },
      {
        "icon": "Cy_icon_fsq_sx_jl",
        "desc": "skill_wind_desc_4",
        "num": -45
      },
      {
        "icon": "Cy_icon_fsq_sx_jl",
        "desc": "skill_wind_desc_5",
        "num": -55
      }
    ],
    "max_level": 5
  },
  "3": {
    "id": 3,
    "name": "skill_turn",
    "level": [
      {
        "icon": "Cy_icon_fsq_sx_curl",
        "desc": "skill_turn_desc_1",
        "num": 10
      },
      {
        "icon": "Cy_icon_fsq_sx_curl",
        "desc": "skill_turn_desc_2",
        "num": 20
      },
      {
        "icon": "Cy_icon_fsq_sx_curl",
        "desc": "skill_turn_desc_3",
        "num": 30
      },
      {
        "icon": "Cy_icon_fsq_sx_curl",
        "desc": "skill_turn_desc_4",
        "num": 40
      },
      {
        "icon": "Cy_icon_fsq_sx_curl",
        "desc": "skill_turn_desc_5",
        "num": 50
      }
    ],
    "max_level": 5
  },
  "4": {
    "id": 4,
    "name": "skill_accuracy",
    "level": [
      {
        "icon": "Cy_icon_fsq_sx_jz",
        "desc": "skill_accuracy_desc_01",
        "num": 5
      },
      {
        "icon": "Cy_icon_fsq_sx_jz",
        "desc": "skill_accuracy_desc_02",
        "num": 10
      },
      {
        "icon": "Cy_icon_fsq_sx_jz",
        "desc": "skill_accuracy_desc_03",
        "num": 15
      },
      {
        "icon": "Cy_icon_fsq_sx_jz",
        "desc": "skill_accuracy_desc_04",
        "num": 20
      },
      {
        "icon": "Cy_icon_fsq_sx_jz",
        "desc": "skill_accuracy_desc_05",
        "num": 25
      }
    ],
    "max_level": 5
  }
}