{
  "1": {
    "id": 1,
    "name": "farmer",
    "icon_small": "徽章小_01",
    "icon_big": "徽章大_01",
    "gfx_upgrade": "",
    "pres": 200,
    "pres_unlock": 0,
    "team_k": [
      0.0,
      0.603707756,
      0.787929903,
      1.0,
      1.235665603
    ],
    "real_k": 70.48606872038448,
    "loss_pres": 0,
    "bonus_pres": 0.2,
    "slave_limit": 4,
    "head_pres": 70,
    "battle_id": 0,
    "hole_num": 1,
    "res_daily": 170,
    "res_tribute": 0.05,
    "chest": 701
  },
  "2": {
    "id": 2,
    "name": "knight",
    "icon_small": "徽章小_02",
    "icon_big": "徽章大_02",
    "gfx_upgrade": "gfx_badge_02",
    "pres": 1100,
    "pres_unlock": 200,
    "team_k": [
      0.0,
      0.473045,
      0.812040401,
      1.0,
      1.1982231
    ],
    "real_k": 105.6101075655241,
    "loss_pres": 0.03,
    "bonus_pres": 0.2,
    "slave_limit": 5,
    "head_pres": 80,
    "battle_id": 2,
    "hole_num": 2,
    "res_daily": 170,
    "res_tribute": 0.05,
    "chest": 702
  },
  "3": {
    "id": 3,
    "name": "viscount",
    "icon_small": "徽章小_03",
    "icon_big": "徽章大_03",
    "gfx_upgrade": "gfx_badge_03",
    "pres": 7000,
    "pres_unlock": 1300,
    "team_k": [
      0.0,
      0.480304302,
      0.734067419,
      1.0,
      1.262750512
    ],
    "real_k": 275.0068751718793,
    "loss_pres": 0.03,
    "bonus_pres": 0.2,
    "slave_limit": 6,
    "head_pres": 90,
    "battle_id": 3,
    "hole_num": 3,
    "res_daily": 170,
    "res_tribute": 0.05,
    "chest": 703
  },
  "4": {
    "id": 4,
    "name": "earl",
    "icon_small": "徽章小_04",
    "icon_big": "徽章大_04",
    "gfx_upgrade": "gfx_badge_04",
    "pres": 24000,
    "pres_unlock": 8300,
    "team_k": [
      0.0,
      0.418707198,
      0.715720299,
      1.0,
      1.266303834
    ],
    "real_k": 568.3002519664556,
    "loss_pres": 0.03,
    "bonus_pres": 0.2,
    "slave_limit": 7,
    "head_pres": 100,
    "battle_id": 4,
    "hole_num": 3,
    "res_daily": 170,
    "res_tribute": 0.05,
    "chest": 704
  },
  "5": {
    "id": 5,
    "name": "marquis",
    "icon_small": "徽章小_05",
    "icon_big": "徽章大_05",
    "gfx_upgrade": "gfx_badge_05",
    "pres": 70000,
    "pres_unlock": 32300,
    "team_k": [
      0.0,
      0.410322801,
      0.717981368,
      1.0,
      1.261021423
    ],
    "real_k": 897.7093085886696,
    "loss_pres": 0.03,
    "bonus_pres": 0.2,
    "slave_limit": 8,
    "head_pres": 110,
    "battle_id": 5,
    "hole_num": 4,
    "res_daily": 170,
    "res_tribute": 0.05,
    "chest": 705
  },
  "6": {
    "id": 6,
    "name": "duke",
    "icon_small": "徽章小_06",
    "icon_big": "徽章大_06",
    "gfx_upgrade": "gfx_badge_06",
    "pres": 145000,
    "pres_unlock": 102300,
    "team_k": [
      0.0,
      0.40207009,
      0.719836407,
      1.0,
      1.259320476
    ],
    "real_k": 1351.7003564209263,
    "loss_pres": 0.03,
    "bonus_pres": 0.2,
    "slave_limit": 9,
    "head_pres": 120,
    "battle_id": 6,
    "hole_num": 4,
    "res_daily": 170,
    "res_tribute": 0.05,
    "chest": 706
  },
  "7": {
    "id": 7,
    "name": "king",
    "icon_small": "徽章小_07",
    "icon_big": "徽章大_07",
    "gfx_upgrade": "gfx_badge_07",
    "pres": 235000,
    "pres_unlock": 247300,
    "team_k": [
      0.0,
      0.40493975,
      0.721404907,
      1.0,
      1.257652175
    ],
    "real_k": 1770.5217026783243,
    "loss_pres": 0.03,
    "bonus_pres": 0.2,
    "slave_limit": 10,
    "head_pres": 130,
    "battle_id": 7,
    "hole_num": 5,
    "res_daily": 170,
    "res_tribute": 0.05,
    "chest": 707
  }
}