{
  "1": {
    "id": 1,
    "name": "stage1",
    "level": 1,
    "win": 3,
    "lose": 2,
    "max": 30,
    "fee": 100,
    "trophy_needed": 0,
    "wind_max": 3,
    "wind_min": 0,
    "courses": [
      {
        "id": 1,
        "weight": 10
      },
      {
        "id": 3,
        "weight": 10
      },
      {
        "id": 4,
        "weight": 10
      }
    ],
    "debuff_k": 0.2,
    "draw_courses": [
      {
        "id": 2,
        "weight": 10
      },
      {
        "id": 5,
        "weight": 10
      }
    ],
    "background": "stage_bg_01",
    "needle_speed_k": 0.6
  },
  "2": {
    "id": 2,
    "name": "stage2",
    "level": 2,
    "win": 7,
    "lose": 5,
    "max": 80,
    "fee": 300,
    "trophy_needed": 15,
    "wind_max": 6,
    "wind_min": 1,
    "courses": [
      {
        "id": 6,
        "weight": 10
      },
      {
        "id": 12,
        "weight": 10
      },
      {
        "id": 14,
        "weight": 10
      },
      {
        "id": 17,
        "weight": 10
      },
      {
        "id": 36,
        "weight": 10
      }
    ],
    "debuff_k": 1.0,
    "draw_courses": [
      {
        "id": 22,
        "weight": 10
      },
      {
        "id": 24,
        "weight": 10
      },
      {
        "id": 31,
        "weight": 10
      }
    ],
    "background": "stage_bg_02",
    "needle_speed_k": 0.8
  },
  "3": {
    "id": 3,
    "name": "stage3",
    "level": 3,
    "win": 10,
    "lose": 7,
    "max": 150,
    "fee": 1000,
    "trophy_needed": 50,
    "wind_max": 8,
    "wind_min": 1,
    "courses": [
      {
        "id": 8,
        "weight": 10
      },
      {
        "id": 25,
        "weight": 10
      },
      {
        "id": 16,
        "weight": 10
      },
      {
        "id": 33,
        "weight": 10
      },
      {
        "id": 34,
        "weight": 10
      }
    ],
    "debuff_k": 1.0,
    "draw_courses": [
      {
        "id": 13,
        "weight": 10
      },
      {
        "id": 23,
        "weight": 10
      },
      {
        "id": 26,
        "weight": 10
      },
      {
        "id": 32,
        "weight": 10
      }
    ],
    "background": "stage_bg_03",
    "needle_speed_k": 1.0
  },
  "4": {
    "id": 4,
    "name": "stage4",
    "level": 4,
    "win": 13,
    "lose": 9,
    "max": 250,
    "fee": 3000,
    "trophy_needed": 135,
    "wind_max": 8,
    "wind_min": 3,
    "courses": [
      {
        "id": 18,
        "weight": 10
      },
      {
        "id": 25,
        "weight": 10
      }
    ],
    "debuff_k": 1.0,
    "draw_courses": [
      {
        "id": 13,
        "weight": 10
      },
      {
        "id": 23,
        "weight": 10
      },
      {
        "id": 27,
        "weight": 10
      }
    ],
    "background": "stage_bg_04",
    "needle_speed_k": 1.0
  },
  "5": {
    "id": 5,
    "name": "stage5",
    "level": 5,
    "win": 16,
    "lose": 11,
    "max": 400,
    "fee": 10000,
    "trophy_needed": 300,
    "wind_max": 10,
    "wind_min": 3,
    "courses": [
      {
        "id": 19,
        "weight": 10
      },
      {
        "id": 20,
        "weight": 10
      },
      {
        "id": 21,
        "weight": 10
      },
      {
        "id": 10,
        "weight": 10
      }
    ],
    "debuff_k": 1.0,
    "draw_courses": [
      {
        "id": 9,
        "weight": 100
      }
    ],
    "background": "stage_bg_05",
    "needle_speed_k": 1.0
  },
  "6": {
    "id": 6,
    "name": "stage6",
    "level": 6,
    "win": 20,
    "lose": 16,
    "max": 600,
    "fee": 50000,
    "trophy_needed": 600,
    "wind_max": 10,
    "wind_min": 4,
    "courses": [
      {
        "id": 1,
        "weight": 100
      }
    ],
    "debuff_k": 1.0,
    "draw_courses": [
      {
        "id": 2,
        "weight": 100
      }
    ],
    "background": "stage_bg_06",
    "needle_speed_k": 1.0
  },
  "7": {
    "id": 7,
    "name": "stage7",
    "level": 7,
    "win": 25,
    "lose": 25,
    "max": 900,
    "fee": 300000,
    "trophy_needed": 1000,
    "wind_max": 10,
    "wind_min": 5,
    "courses": [
      {
        "id": 1,
        "weight": 100
      }
    ],
    "debuff_k": 1.0,
    "draw_courses": [
      {
        "id": 2,
        "weight": 100
      }
    ],
    "background": "stage_bg_07",
    "needle_speed_k": 1.0
  },
  "8": {
    "id": 8,
    "name": "stage8",
    "level": 8,
    "win": 30,
    "lose": 32,
    "max": 1500,
    "fee": 2000000,
    "trophy_needed": 1600,
    "wind_max": 10,
    "wind_min": 6,
    "courses": [
      {
        "id": 1,
        "weight": 100
      }
    ],
    "debuff_k": 1.0,
    "draw_courses": [
      {
        "id": 2,
        "weight": 100
      }
    ],
    "background": "stage_bg_08",
    "needle_speed_k": 1.0
  }
}